%YAML 1.1
%TAG !u! tag:unity3d.com,2011:
--- !u!1001 &645739975866549301
PrefabInstance:
  m_ObjectHideFlags: 0
  serializedVersion: 2
  m_Modification:
    m_TransformParent: {fileID: 0}
    m_Modifications:
    - target: {fileID: 5742351084192229318, guid: 7a41de2bd1c4648339329f456d2c4959,
        type: 3}
      propertyPath: m_Name
      value: BlackCoin
      objectReference: {fileID: 0}
    - target: {fileID: 5742351084192229369, guid: 7a41de2bd1c4648339329f456d2c4959,
        type: 3}
      propertyPath: m_LocalPosition.x
      value: 0
      objectReference: {fileID: 0}
    - target: {fileID: 5742351084192229369, guid: 7a41de2bd1c4648339329f456d2c4959,
        type: 3}
      propertyPath: m_LocalPosition.y
      value: 0
      objectReference: {fileID: 0}
    - target: {fileID: 5742351084192229369, guid: 7a41de2bd1c4648339329f456d2c4959,
        type: 3}
      propertyPath: m_LocalPosition.z
      value: 0
      objectReference: {fileID: 0}
    - target: {fileID: 5742351084192229369, guid: 7a41de2bd1c4648339329f456d2c4959,
        type: 3}
      propertyPath: m_LocalRotation.x
      value: 0
      objectReference: {fileID: 0}
    - target: {fileID: 5742351084192229369, guid: 7a41de2bd1c4648339329f456d2c4959,
        type: 3}
      propertyPath: m_LocalRotation.y
      value: 0
      objectReference: {fileID: 0}
    - target: {fileID: 5742351084192229369, guid: 7a41de2bd1c4648339329f456d2c4959,
        type: 3}
      propertyPath: m_LocalRotation.z
      value: 0
      objectReference: {fileID: 0}
    - target: {fileID: 5742351084192229369, guid: 7a41de2bd1c4648339329f456d2c4959,
        type: 3}
      propertyPath: m_LocalRotation.w
      value: 1
      objectReference: {fileID: 0}
    - target: {fileID: 5742351084192229369, guid: 7a41de2bd1c4648339329f456d2c4959,
        type: 3}
      propertyPath: m_RootOrder
      value: 0
      objectReference: {fileID: 0}
    - target: {fileID: 5742351084192229369, guid: 7a41de2bd1c4648339329f456d2c4959,
        type: 3}
      propertyPath: m_LocalEulerAnglesHint.x
      value: 0
      objectReference: {fileID: 0}
    - target: {fileID: 5742351084192229369, guid: 7a41de2bd1c4648339329f456d2c4959,
        type: 3}
      propertyPath: m_LocalEulerAnglesHint.y
      value: 0
      objectReference: {fileID: 0}
    - target: {fileID: 5742351084192229369, guid: 7a41de2bd1c4648339329f456d2c4959,
        type: 3}
      propertyPath: m_LocalEulerAnglesHint.z
      value: 0
      objectReference: {fileID: 0}
    - target: {fileID: 5742351084192229369, guid: 7a41de2bd1c4648339329f456d2c4959,
        type: 3}
      propertyPath: m_AnchoredPosition.x
      value: -84
      objectReference: {fileID: 0}
    - target: {fileID: 5742351084192229369, guid: 7a41de2bd1c4648339329f456d2c4959,
        type: 3}
      propertyPath: m_AnchoredPosition.y
      value: 225
      objectReference: {fileID: 0}
    - target: {fileID: 5742351084192229369, guid: 7a41de2bd1c4648339329f456d2c4959,
        type: 3}
      propertyPath: m_AnchorMin.x
      value: 0.5
      objectReference: {fileID: 0}
    - target: {fileID: 5742351084192229369, guid: 7a41de2bd1c4648339329f456d2c4959,
        type: 3}
      propertyPath: m_AnchorMin.y
      value: 0.5
      objectReference: {fileID: 0}
    - target: {fileID: 5742351084192229369, guid: 7a41de2bd1c4648339329f456d2c4959,
        type: 3}
      propertyPath: m_AnchorMax.x
      value: 0.5
      objectReference: {fileID: 0}
    - target: {fileID: 5742351084192229369, guid: 7a41de2bd1c4648339329f456d2c4959,
        type: 3}
      propertyPath: m_AnchorMax.y
      value: 0.5
      objectReference: {fileID: 0}
    - target: {fileID: 5742351084192229369, guid: 7a41de2bd1c4648339329f456d2c4959,
        type: 3}
      propertyPath: m_Pivot.x
      value: 0.5
      objectReference: {fileID: 0}
    - target: {fileID: 5742351084192229369, guid: 7a41de2bd1c4648339329f456d2c4959,
        type: 3}
      propertyPath: m_Pivot.y
      value: 0.5
      objectReference: {fileID: 0}
    - target: {fileID: 5742351084192229368, guid: 7a41de2bd1c4648339329f456d2c4959,
        type: 3}
      propertyPath: m_Sprite
      value: 
      objectReference: {fileID: 21300000, guid: a5f48134dd4ca4f2fbb13e4fb7474b43,
        type: 3}
    m_RemovedComponents: []
  m_SourcePrefab: {fileID: 100100000, guid: 7a41de2bd1c4648339329f456d2c4959, type: 3}
