{
   "statusCode":200,
   "message":"Success",
   "status":true,
   "type":"Default",
   "data":[
      {
         "experience":2660,
         "_id":"5dfb13be9a3d463491de4b51",
         "email":"kshitij.bhardwaj@chicmic.co.in",
         "name":"Kshitij Sample",
         "userName":"KshitijBhardwaj9378",
         "imageUrl":"https://AIMCarrom.s3.amazonaws.com/profileImages/5dfb13be9a3d463491de4b51.jpg",
         "isChallenged":false,
         "region":"12.12.12.12",
         "port":3456
      },
      {
         "experience":2440,
         "_id":"5e0d979fad25671110a8af9b",
         "email":"kshitij@chicmic.co.in",
         "name":"Kshitij D Sample",
         "userName":"kshitij9702",
         "imageUrl":"https://AIMCarrom.s3.us-east-2.amazonaws.com/profileImages/5e0d979fad25671110a8af9b.jpg",
         "isChallenged":false,
         "region":"",
         "port":0
      }
   ]
}