{
  "project_info": {
    "project_number": "451761124947",
    "firebase_url": "https://latest-carrom-default-rtdb.firebaseio.com",
    "project_id": "latest-carrom",
    "storage_bucket": "latest-carrom.appspot.com"
  },
  "client": [
    {
      "client_info": {
        "mobilesdk_app_id": "1:451761124947:android:16256ab158a447310fb8a6",
        "android_client_info": {
          "package_name": "com.aimgamesit.latestcarrom"
        }
      },
      "oauth_client": [
        {
          "client_id": "451761124947-0bv79d3s474fmlmhso3psc44q4d5s7rl.apps.googleusercontent.com",
          "client_type": 3
        }
      ],
      "api_key": [
        {
          "current_key": "AIzaSyC-IuBnzpltcOxepV_tZ4xhfYXuAGiVhGA"
        }
      ],
      "services": {
        "appinvite_service": {
          "other_platform_oauth_client": [
            {
              "client_id": "451761124947-0bv79d3s474fmlmhso3psc44q4d5s7rl.apps.googleusercontent.com",
              "client_type": 3
            }
          ]
        }
      }
    }
  ],
  "configuration_version": "1"
}